Package olympicsWeather – Menu principal
…
Chaque fonction est conçue pour simplifier l’accès et la manipulation des données météorologiques, depuis la récupération des informations depuis une API externe jusqu’à la visualisation interactive des prévisions.

Exemples

Site: le stade de France

# librairie 
library(olympicsWeather)

# Obtenir les prévisions météorologiques à partir d'un lieu exacte
meteo <- get_forecast("Stade de France, Saint-Denis, France")
meteo

# A tibble: 168 × 5
   date_heure          temperature_celsius temperature_ressentie
   <dttm>                            <dbl>                 <dbl>
 1 2024-09-28 00:00:00                11.1                   9.5
 2 2024-09-28 01:00:00                10.6                   9.3
 3 2024-09-28 02:00:00                 9.7                   7.9
 4 2024-09-28 03:00:00                 8.8                   7  
 5 2024-09-28 04:00:00                 8.2                   6.3
 6 2024-09-28 05:00:00                 8                     6.2
 7 2024-09-28 06:00:00                 7.7                   5.9
 8 2024-09-28 07:00:00                 8.5                   6.7
 9 2024-09-28 08:00:00                10.2                   8.2
10 2024-09-28 09:00:00                12.1                  10.1
# ℹ 158 more rows
# ℹ 2 more variables: precipitation_proba <int>, precipitation_mm <dbl>

# Visualer les données
graphique <- visualiser_temperatures(meteo)
graphique

Coordonnées GPS

# Obtenir les prévisions météorologiques à partir de Coordonnées GPS 
gps <- c( 43.276703, 5.334791)

# Obtenir les prévisions météorologiques
meteo <- get_forecast(gps)
meteo

# A tibble: 168 × 5
   date_heure          temperature_celsius temperature_ressentie
   <dttm>                            <dbl>                 <dbl>
 1 2024-09-28 00:00:00                16.9                  11.8
 2 2024-09-28 01:00:00                16.8                  11.5
 3 2024-09-28 02:00:00                16.8                  11.4
 4 2024-09-28 03:00:00                15.9                  11.9
 5 2024-09-28 04:00:00                15.6                  11  
 6 2024-09-28 05:00:00                16                    10.5
 7 2024-09-28 06:00:00                15.9                  10.3
 8 2024-09-28 07:00:00                16.1                  10  
 9 2024-09-28 08:00:00                16.8                  10.1
10 2024-09-28 09:00:00                17.8                  11.3
# ℹ 158 more rows
# ℹ 2 more variables: precipitation_proba <int>, precipitation_mm <dbl>
…
