Biostatistiques – Menu principal
…
Les crabes féminins et masculins ont des distributions similaires, avec une gamme de poids étendue, tandis que les indéterminées ont une distribution plus concentrée vers les poids inférieurs.

Fréquences en fonction du sexe

crabe_complet_mice_rf2 |>
  group_by(sexe, diametre) |>
  count()

# A tibble: 266 × 3
# Groups:   sexe, diametre [266]
   sexe  diametre     n
   <chr>    <dbl> <int>
 1 F         14.9     1
 2 F         16.0     1
 3 F         16.8     1
 4 F         17.1     2
 5 F         17.5     1
 6 F         19.0     1
 7 F         19.4     2
 8 F         19.8     3
 9 F         20.2     3
10 F         20.6     2
# ℹ 256 more rows

crabe_complet_mice_rf2 |>
  group_by(sexe, poids) |>
  count()

# A tibble: 3,093 × 3
# Groups:   sexe, poids [3,093]
   sexe   poids     n
   <chr>  <dbl> <int>
 1 F     0.0643     1
 2 F     0.113      1
 3 F     0.119      1
 4 F     0.125      1
 5 F     0.137      1
 6 F     0.149      1
 7 F     0.151      1
 8 F     0.154      1
 9 F     0.158      1
10 F     0.161      1
# ℹ 3,083 more rows

crabe_complet_mice_rf2 |>
  group_by(sexe, age) |>
  count()

# A tibble: 68 × 3
# Groups:   sexe, age [68]
   sexe    age     n
   <chr> <int> <int>
 1 F         5     4
 2 F         6    15
 3 F         7    39
 4 F         8   114
 5 F         9   220
 6 F        10   237
 7 F        11   185
 8 F        12   120
 9 F        13    85
10 F        14    54
# ℹ 58 more rows
…
